%YAML 1.1
%TAG !u! tag:unity3d.com,2011:
--- !u!114 &11400000
MonoBehaviour:
  m_ObjectHideFlags: 0
  m_CorrespondingSourceObject: {fileID: 0}
  m_PrefabInstance: {fileID: 0}
  m_PrefabAsset: {fileID: 0}
  m_GameObject: {fileID: 0}
  m_Enabled: 1
  m_EditorHideFlags: 0
  m_Script: {fileID: 11500000, guid: 0fd68ed0c9674bef9003b4e5dcc376fe, type: 3}
  m_Name: Full Cube
  m_EditorClassIdentifier: 
  Material: {fileID: 2100000, guid: d7b2ef97cde85d542925df7e41199e34, type: 2}
  m_sideLength: 1
  m_sides: -1
