%YAML 1.1
%TAG !u! tag:unity3d.com,2011:
--- !u!114 &11400000
MonoBehaviour:
  m_ObjectHideFlags: 0
  m_CorrespondingSourceObject: {fileID: 0}
  m_PrefabInstance: {fileID: 0}
  m_PrefabAsset: {fileID: 0}
  m_GameObject: {fileID: 0}
  m_Enabled: 1
  m_EditorHideFlags: 0
  m_Script: {fileID: 11500000, guid: 5a43c3d30bdc413a848834a5f4f8cdab, type: 3}
  m_Name: IntroDialogue
  m_EditorClassIdentifier: 
  DialoguesElements:
  - Name: Alpha One
    Dialogue: Come in Prime, I've reached the waypoint. Please Advise.
  - Name: Alpha Prime
    Dialogue: Roger, One. Hold tight, we think they'll come to you.
  - Name: Alpha One
    Dialogue: Understood, I'll keep my eyes open.
